Interface,IP,Mask,Gateway
CORE,0.0.0.0,0.0.0.0,123.123.123.127
inside1,192.168.0.0,16,192.168.0.254 #Supernet for route inside2
inside2,192.168.1.0,24,192.168.1.2 #Subnet for route inside1
ZONE2,10.5.1.0,24,10.5.1.30 #Supernet for network interface ZONE3
